…
#### Top 3 Motives by Series

``` r
scoob %>%
  group_by(series, motive) %>%
  reframe(count=n()) %>%
  arrange(series, desc(count)) %>%
  group_by(series) %>%
  slice(1:3)
```

    ## # A tibble: 27 × 3
    ## # Groups:   series [9]
    ##    series                          motive      count
    ##    <chr>                           <chr>       <int>
    ##  1 A Pup Named Scooby-Doo          Competition    11
    ##  2 A Pup Named Scooby-Doo          Theft          10
    ##  3 A Pup Named Scooby-Doo          Assistance      2
    ##  4 Be Cool, Scooby-Doo!            Competition    30
    ##  5 Be Cool, Scooby-Doo!            Theft          13
    ##  6 Be Cool, Scooby-Doo!            Treasure        4
    ##  7 Scooby Doo, Where Are You!      Theft          11
    ##  8 Scooby Doo, Where Are You!      Competition     4
    ##  9 Scooby Doo, Where Are You!      Treasure        3
    ## 10 Scooby-Doo Mystery Incorporated Competition    22
    ## # ℹ 17 more rows

#### Motive Count by Gender

``` r
scoob %>%
  group_by(culprit.gender, motive) %>%
  separate_rows(culprit.gender, sep = ",") %>%
  mutate(culprit.gender=trimws(culprit.gender)) %>%
  group_by(culprit.gender, motive) %>%
  reframe(count=n()) %>%
  arrange(motive, desc(count)) %>%
  filter(culprit.gender != "NULL")
```

    ## # A tibble: 27 × 3
    ##    culprit.gender motive        count
    ##    <chr>          <chr>         <int>
    ##  1 Male           Abduction         2
    ##  2 Female         Assistance        1
    ##  3 Male           Assistance        1
    ##  4 Male           Competition     128
    ##  5 Female         Competition      43
    ##  6 Male           Conquer           1
    ##  7 Male           Counterfeit       8
    ##  8 Female         Counterfeit       2
    ##  9 Male           Entertainment     3
    ## 10 Male           Extortion         2
    ## # ℹ 17 more rows

#### Top 3 Motives by Environment

``` r
scoob %>%
  group_by(environment, motive) %>%
  reframe(count=n()) %>%
  arrange(environment, desc(count)) %>%
  group_by(environment) %>%
  slice(1:3)
```

    ## # A tibble: 38 × 3
    ## # Groups:   environment [14]
    ##    environment motive      count
    ##    <chr>       <chr>       <int>
    ##  1 Air         Competition     1
    ##  2 Cave        Treasure        4
    ##  3 Cave        Competition     1
    ##  4 Cave        Conquer         1
    ##  5 Coast       Competition     3
    ##  6 Coast       Smuggling       2
    ##  7 Coast       Counterfeit     1
    ##  8 Desert      Competition     9
    ##  9 Desert      Theft           3
    ## 10 Desert      Treasure        2
    ## # ℹ 28 more rows

#### Top 3 Motives by Year

``` r
scoob %>%
  mutate(aired.year=year(date.aired)) %>%
  group_by(aired.year, motive) %>%
  reframe(count=n()) %>%
  arrange(aired.year, desc(count)) %>%
  group_by(aired.year) %>%
  slice(1:3)
```

    ## # A tibble: 78 × 3
    ## # Groups:   aired.year [28]
    ##    aired.year motive      count
    ##         <dbl> <chr>       <int>
    ##  1       1969 Theft           5
    ##  2       1969 Competition     4
    ##  3       1969 Treasure        2
    ##  4       1970 Theft           6
    ##  5       1970 Smuggling       2
    ##  6       1970 Inheritance     1
    ##  7       1972 Theft           5
    ##  8       1972 Treasure        3
    ##  9       1972 Competition     2
    ## 10       1973 Competition     6
    ## # ℹ 68 more rows
…
